Exploratory Data Analysis: Game of Thrones Characters
…
Data Wrangling and Summary Statistics

I manipulated and organized the data using dplyr functions in order to show certain relationships between the variables under certain conditions. First, I ommitted rows with NA’s to create a new dataset with only POV characters from both the books and the show (the list is small) and showed which book POV characters have the most screentime in the show. I also did this with non-book POV characters using dplyr functions filter and arrange to show which characters on the show had the most screentime without having any POV chapters in the books.

I also made summary statistic for screentime and word count to show which of the main characters had the most lines and which were on screen the most. The results were expected, showing characters like Tyrion having many lines while he was on screen, whereas action characters such as Jon Snow have a lot of screentime but relatively fewer dialogue. I used dplyr function mutate to create new variables that show the ratio between WordCount and screentime for the POV characters, as well as to see how long the POV chapters tend to be for each character.

It was not surprising to find that Tyrion was the character with the max word count at 233876 words. Of all the main characters, Catelyn Stark had the highest wordcount in the books relative to her screentime in the show, while Melisandre had the lowest. This isn’t surprising as Melisandre was a less impactful POV character in the books while she was one of the main characters in the show. Brienne of Tarth had the longest chapters on average, while Ned Stark had the shortest chapters. I believe this is due to the fact that chapters were shorter on average in the earlier books of the series when Eddard was alive, and then by the 4th book (A Feast for Crows) the chapters became much longer and that is when Brienne of Tarth became a POV character.

#Book and Show POV characters organized by screentime
got7_pov <- got7B %>% arrange(desc(screentime)) %>% na.omit()
head(got7_pov)

## # A tibble: 6 x 18
## # Groups:   Name [6]
##   Name   episodes_appear… first_appearance last_appearance WordCount Total.Pages
##   <chr>             <int>            <int>           <int>     <int>       <int>
## 1 Tyrio…               67             2011            2019    233876         649
## 2 Jon S…               62             2011            2019    204275         553
## 3 Daene…               62             2011            2019    162374         434
## 4 Cerse…               62             2011            2019     77016         247
## 5 Sansa…               59             2011            2019    107834         317
## 6 Arya …               59             2011            2019    151797         433
## # … with 12 more variables: Total.Chapters <int>, Total.Pages..GOT. <int>,
## #   Total.Chapters..GOT. <int>, Total.Pages..COK. <int>,
## #   Total.Chapters..COK. <int>, Total.Pages..SOS. <int>,
## #   Total.Chapters..SOS. <int>, Total.Pages..FFC. <int>,
## #   Total.Chapters..FFC. <int>, Total.Pages..DWD. <int>,
## #   Total.Chapters..DWD. <int>, screentime <dbl>

#Which non POV characters from the books had the most screentime in the show? 
got7_nonpov <- got7 %>% filter(is.na(WordCount)) %>% arrange(desc(screentime))
got7_nonpov <- subset(got7_nonpov, Name!="Daenerys Targaryen" & Name!="Eddard 'Ned' Stark")
head(got7_nonpov)

##                           Name      actor_ess episodes_appeared
## 2                Jorah Mormont      Iain Glen                52
## 3 Petyr 'Littlefinger' Baelish   Aidan Gillen                41
## 5                   Lord Varys   Conleth Hill                46
## 6              Tywin Lannister  Charles Dance                27
## 7              Margaery Tyrell Natalie Dormer                26
##   first_appearance last_appearance WordCount Total.Pages Total.Chapters
## 2             2011            2019        NA          NA             NA
## 3             2011            2017        NA          NA             NA
## 5             2011            2019        NA          NA             NA
## 6             2011            2015        NA          NA             NA
## 7             2012            2016        NA          NA             NA
##   Total.Pages..GOT. Total.Chapters..GOT. Total.Pages..COK. Total.Chapters..COK.
## 2                NA                   NA                NA                   NA
## 3                NA                   NA                NA                   NA
## 5                NA                   NA                NA                   NA
## 6                NA                   NA                NA                   NA
## 7                NA                   NA                NA                   NA
##   Total.Pages..SOS. Total.Chapters..SOS. Total.Pages..FFC. Total.Chapters..FFC.
## 2                NA                   NA                NA                   NA
## 3                NA                   NA                NA                   NA
## 5                NA                   NA                NA                   NA
## 6                NA                   NA                NA                   NA
## 7                NA                   NA                NA                   NA
##   Total.Pages..DWD. Total.Chapters..DWD. screentime episodes
## 2                NA                   NA     117.30       42
## 3                NA                   NA     102.15       35
## 5                NA                   NA      81.45       36
## 6                NA                   NA      78.15       27
## 7                NA                   NA      78.00       26
##  [ reached 'max' / getOption("max.print") -- omitted 1 rows ]
…
I made a correlation heatmap to show which of the numeric variables had a high correlation with each other. Most of the statistics correlate very highly, which is expected as a greater amount of time on screen is usually associated with more dialogue/speaking lines and importance to the story. I was surprised to see that there’s a lower correlation between the number of episodes a show character appears in and their wordcount in the books. This demonstrates that there is a difference between how important the character might be in the show vs. the books.

#Correlation Heatmap 

got_mat <- got7 %>% dplyr::select(episodes_appeared, WordCount, Total.Pages, Total.Chapters, screentime, episodes)

got_cormat <- got_mat %>% select_if(is.numeric) %>% cor(use="pair")

got_tidycor <- got_cormat %>% as.data.frame %>% rownames_to_column("var1") %>%  pivot_longer(-1,names_to="var2",values_to="correlation")

got_tidycor

## # A tibble: 25 x 3
##    var1              var2              correlation
##    <chr>             <chr>                   <dbl>
##  1 episodes_appeared episodes_appeared       1    
##  2 episodes_appeared WordCount               0.738
##  3 episodes_appeared Total.Pages             0.851
##  4 episodes_appeared Total.Chapters          0.807
##  5 episodes_appeared screentime              0.894
##  6 WordCount         episodes_appeared       0.738
##  7 WordCount         WordCount               1    
##  8 WordCount         Total.Pages             0.998
##  9 WordCount         Total.Chapters          0.991
## 10 WordCount         screentime              0.885
## # … with 15 more rows
…
